{
  "project_info": {
    "project_number": "591666575674",
    "project_id": "studentdb-48dae",
    "storage_bucket": "studentdb-48dae.appspot.com"
  },
  "client": [
    {
      "client_info": {
        "mobilesdk_app_id": "1:591666575674:android:216a4c35eaefe6669df803",
        "android_client_info": {
          "package_name": "com.example.studentdb"
        }
      },
      "oauth_client": [
        {
          "client_id": "591666575674-8bvnkvjmaca1ka215jmfceo8cs386hsc.apps.googleusercontent.com",
          "client_type": 3
        }
      ],
      "api_key": [
        {
          "current_key": "AIzaSyDJoGWjGOyo7Ms_haMdX-GCtS70vLW9eLA"
        }
      ],
      "services": {
        "appinvite_service": {
          "other_platform_oauth_client": [
            {
              "client_id": "591666575674-8bvnkvjmaca1ka215jmfceo8cs386hsc.apps.googleusercontent.com",
              "client_type": 3
            }
          ]
        }
      }
    }
  ],
  "configuration_version": "1"
}